{
    "page": 1,
    "per_page": 15,
    "photos": [
      {
        "id": 15286,
        "photographer": "Luis del Río",
        "photographer_url": "https://www.pexels.com/@luisdelrio",      
        "src": {
          "original": "https://images.pexels.com/photos/15286/pexels-photo.jpg"       
        },
        "liked": false,
        "alt": "Person Walking Between Green Forest Trees"
      },
      {
        "id": 3408744,
        "photographer": "stein egil liland",
        "photographer_url": "https://www.pexels.com/@therato",
        "src": {
          "original": "https://images.pexels.com/photos/3408744/pexels-photo-3408744.jpeg"
        },
        "liked": false,
        "alt": "Scenic View Of Snow Capped Mountains During Night"
      },
      {
        "id": 572897,
        "url": "https://www.pexels.com/photo/mountain-covered-snow-under-star-572897/",
        "photographer": "eberhard grossgasteiger",
        "photographer_url": "https://www.pexels.com/@eberhardgross",
        "src": {
          "original": "https://images.pexels.com/photos/572897/pexels-photo-572897.jpeg"
              },
        "liked": false,
        "alt": "Mountain Covered Snow Under Star"
      },
      {
        "id": 624015,
        "url": "https://www.pexels.com/photo/aurora-borealis-624015/",
        "photographer": "Frans Van Heerden",
        "photographer_url": "https://www.pexels.com/@frans-van-heerden-201846",
        "src": {
          "original": "https://images.pexels.com/photos/624015/pexels-photo-624015.jpeg"
        },
        "liked": false,
        "alt": "Aurora Borealis"
      },
      {
        "id": 3244513,
        "url": "https://www.pexels.com/photo/brown-landscape-under-grey-sky-3244513/",
        "photographer": "Andy Vu",
        "photographer_url": "https://www.pexels.com/@andyhvu",
        "src": {
          "original": "https://images.pexels.com/photos/3244513/pexels-photo-3244513.jpeg"
        },
        "liked": false,
        "alt": "Brown Landscape Under Grey Sky"
      },
      {
        "id": 3225517,
        "url": "https://www.pexels.com/photo/photo-of-stream-during-daytime-3225517/",
        "photographer": "Michael Block",
        "photographer_url": "https://www.pexels.com/@michael-block-1691617",
        "src": {
          "original": "https://images.pexels.com/photos/3225517/pexels-photo-3225517.jpeg"
        },
        "liked": false,
        "alt": "Photo Of Stream During Daytime"
      },
      {
        "id": 1770809,
        "url": "https://www.pexels.com/photo/green-grass-near-trees-1770809/",
        "photographer": "Luis Dalvan",
        "photographer_url": "https://www.pexels.com/@luisdalvan",
        "src": {
          "original": "https://images.pexels.com/photos/1770809/pexels-photo-1770809.jpeg"
        },
        "liked": false,
        "alt": "Green Grass Near Trees"
      },
      {
        "id": 1761279,
        "url": "https://www.pexels.com/photo/first-perspective-photography-of-hanging-bridge-1761279/",
        "photographer": "Jacob Colvin",
        "photographer_url": "https://www.pexels.com/@jake-pnw",
        "src": {
          "original": "https://images.pexels.com/photos/1761279/pexels-photo-1761279.jpeg"
        },
        "liked": false,
        "alt": "First Perspective Photography of Hanging Bridge"
      },
      {
        "id": 3214944,
        "url": "https://www.pexels.com/photo/palm-trees-at-beach-3214944/",
        "photographer": "Alex Azabache",
        "photographer_url": "https://www.pexels.com/@alexazabache",
        "src": {
          "original": "https://images.pexels.com/photos/3214944/pexels-photo-3214944.jpeg"
        },
        "liked": false,
        "alt": "Palm Trees at Beach"
      },
      {
        "id": 1402850,
        "url": "https://www.pexels.com/photo/man-standing-on-cliff-watching-punch-bowl-waterfalls-1402850/",
        "photographer": "S Migaj",
        "photographer_url": "https://www.pexels.com/@simonmigaj",
        "src": {
          "original": "https://images.pexels.com/photos/1402850/pexels-photo-1402850.jpeg"
        },
        "liked": false,
        "alt": "Man Standing on Cliff Watching Punch-bowl Waterfalls"
      },
      {
        "id": 3293148,
        "url": "https://www.pexels.com/photo/silhouette-of-a-person-on-a-swing-3293148/",
        "photographer": "Asad Photo Maldives",
        "photographer_url": "https://www.pexels.com/@asadphotography",
        "src": {
          "original": "https://images.pexels.com/photos/3293148/pexels-photo-3293148.jpeg"
        },
        "liked": false,
        "alt": "Silhouette Of A Person On A Swing"
      },
      {
        "id": 3329292,
        "url": "https://www.pexels.com/photo/back-view-of-a-woman-walking-on-a-log-in-the-forest-3329292/",
        "photographer": "Brady Knoll",
        "photographer_url": "https://www.pexels.com/@trvlust",
        "src": {
          "original": "https://images.pexels.com/photos/3329292/pexels-photo-3329292.jpeg"
        },
        "liked": false,
        "alt": "Back View of a Woman Walking on a Log in the Forest"
      },
      {
        "id": 3331094,
        "url": "https://www.pexels.com/photo/areal-photo-of-sea-wave-3331094/",
        "photographer": "Max Ravier",
        "photographer_url": "https://www.pexels.com/@maxravier",
        "src": {
          "original": "https://images.pexels.com/photos/3331094/pexels-photo-3331094.jpeg"
        },
        "liked": false,
        "alt": "Areal Photo of Sea Wave"
      },
      {
        "id": 3464632,
        "url": "https://www.pexels.com/photo/watercrafts-on-river-3464632/",
        "photographer": "Jeremy Bishop",
        "photographer_url": "https://www.pexels.com/@jeremy-bishop-1260133",
        "src": {
          "original": "https://images.pexels.com/photos/3464632/pexels-photo-3464632.jpeg"
        },
        "liked": false,
        "alt": "Watercrafts on River"
      },
      {
        "id": 3509971,
        "url": "https://www.pexels.com/photo/aerial-photography-of-snow-covered-trees-3509971/",
        "photographer": "Tomáš Malík",
        "photographer_url": "https://www.pexels.com/@tomas-malik-793526",
        "src": {
          "original": "https://images.pexels.com/photos/3509971/pexels-photo-3509971.jpeg"
        },
        "liked": false,
        "alt": "Aerial Photography of Snow Covered Trees"
      }
    ],
    "total_results": 8000,
    "next_page": "https://api.pexels.com/v1/search/?page=2&per_page=15&query=nature"
  }